bagit==1.7.0
CacheControl==0.11.7
certifi==2020.6.20
chardet==3.0.4
coloredlogs==14.0
cwltool==3.0.20200807132242
decorator==4.4.2
humanfriendly==8.2
idna==2.10
isodate==0.6.0
lockfile==0.12.2
lxml==4.5.2
mistune==0.8.4
mypy-extensions==0.4.3
networkx==2.5
prov==1.5.1
psutil==5.7.2
pydot==1.4.1
pyparsing==2.4.7
python-dateutil==2.8.1
rdflib==4.2.2
rdflib-jsonld==0.5.0
requests==2.24.0
ruamel.yaml==0.16.5
ruamel.yaml.clib==0.2.2
schema-salad==7.0.20200811075006
shellescape==3.4.1
six==1.15.0
typing-extensions==3.7.4.3
urllib3==1.25.10
